…
**“Texas produces more electricity than any other state, generating
almost twice as much as Florida, the second-highest
electricity-producing state.” (EIA)**

``` r
gen_plants %>%
  st_drop_geometry() %>%
  group_by(state) %>%
  summarise(energy_produced = sum(capacity)) %>%
  arrange(desc(energy_produced))
```

    ## # A tibble: 49 x 2
    ##    state energy_produced
    ##    <chr>           <dbl>
    ##  1 TX            142766.
    ##  2 CA             94754.
    ##  3 FL             81334.
    ##  4 NY             52951.
    ##  5 IL             50962.
    ##  6 PA             50214.
    ##  7 GA             43593.
    ##  8 NC             39215 
    ##  9 WA             38602.
    ## 10 AZ             36586.
    ## # … with 39 more rows
…
