…
**“Texas produces more electricity than any other state, generating
almost twice as much as Florida, the second-highest
electricity-producing state.” (EIA)**

``` r
gen_plants %>%
  st_drop_geometry() %>%
  group_by(state) %>%
  summarise(energy_produced = sum(capacity)) %>%
  arrange(desc(energy_produced))
```

    ## # A tibble: 49 x 2
    ##    state energy_produced
    ##    <chr>           <dbl>
    ##  1 TX            146187.
    ##  2 CA             92414.
    ##  3 FL             75864 
    ##  4 PA             55508.
    ##  5 NY             53803.
    ##  6 IL             51437.
    ##  7 GA             43728.
    ##  8 NC             41947.
    ##  9 WA             38689.
    ## 10 AZ             36999.
    ## # … with 39 more rows
